21

7 4
28
0 2
1 3
5 0
1 3
3 1
1 3
6 3
4 2
1 0
2 2
5 0
4 0
5 0
6 1
6 1
0 3
0 2
4 0
2 2
6 0
1 1
3 2
1 0
0 1
3 0
0 1
1 3
5 3
10 18

17 39
11
14 0
8 26
2 38
15 19
11 15
4 17
3 26
15 27
14 9
9 1
9 34
40 7

10 40
8
4 20
6 14
1 21
6 24
9 20
2 12
0 9
9 22
24 15

26 16
30
16 0
5 15
9 14
18 8
14 15
10 14
25 15
7 2
20 8
0 8
0 15
8 7
9 2
24 1
10 10
21 2
18 14
0 10
24 13
15 5
1 12
25 1
9 4
22 4
13 3
4 7
1 0
25 6
16 12
17 3
45 6

36 4
16
4 1
2 1
0 2
2 1
21 1
24 0
6 0
27 2
3 1
27 3
28 0
8 3
10 1
34 3
33 0
6 3
10 4

7 30
26
2 21
3 17
3 23
5 17
5 8
0 17
3 13
5 3
2 7
6 1
5 16
2 16
3 7
5 10
3 17
1 21
6 21
2 21
0 7
0 5
4 17
6 2
6 3
6 20
4 13
6 23
33 7

8 36
35
0 7
1 6
0 6
0 0
0 6
6 26
4 2
3 3
1 30
3 21
2 20
3 13
2 8
4 0
6 25
5 19
5 0
5 6
1 6
0 8
2 28
7 5
5 24
2 12
2 3
1 1
6 30
1 9
4 5
7 0
3 5
0 10
6 30
7 25
7 27
49 15

12 15
16
2 13
0 3
2 5
0 5
6 4
0 10
3 14
6 12
5 0
2 9
2 14
0 10
9 9
8 12
4 1
10 8
32 12

15 37
17
2 27
8 4
5 27
7 3
2 24
1 16
11 20
4 7
1 20
13 15
4 18
0 4
11 34
8 13
5 36
1 25
13 35
26 3

15 38
12
4 4
3 0
10 25
7 32
2 18
3 36
0 15
4 2
13 15
13 3
14 37
1 11
19 18

29 18
10
3 3
15 16
2 17
6 14
24 0
22 17
26 2
22 11
9 16
20 8
34 15

15 23
2
6 20
2 3
47 9

26 15
2
7 7
7 7
33 11

8 5
14
6 1
1 4
5 2
6 0
2 4
5 4
7 1
0 3
1 2
1 3
2 0
2 1
6 2
5 3
9 8

7 4
29
2 3
1 2
4 3
2 1
4 2
3 2
5 2
6 0
0 1
6 0
3 1
1 3
5 0
3 3
6 3
4 2
3 1
6 3
5 2
1 2
6 1
5 0
3 2
6 1
1 1
3 1
4 3
5 1
0 2
33 17

33 26
27
14 20
21 12
30 22
32 6
12 12
11 8
4 6
10 12
31 22
8 10
21 24
2 10
32 22
26 22
13 20
19 15
1 13
12 7
20 13
13 10
22 6
17 20
12 11
5 9
22 25
23 17
27 9
37 13

37 4
15
28 2
15 2
4 0
36 3
28 0
5 2
5 3
30 2
16 1
7 0
8 2
30 0
34 3
26 2
10 0
11 5

36 13
18
30 2
11 1
34 2
5 2
25 9
3 7
7 12
4 4
20 12
33 3
4 5
33 1
5 9
5 6
9 3
24 0
23 11
6 3
47 5

30 36
9
2 8
25 27
16 33
17 12
20 20
17 1
7 15
26 5
2 1
28 6

35 26
7
7 3
8 2
32 19
34 16
21 22
25 18
2 16
4 19

39 22
40
11 1
34 9
25 21
37 0
3 0
22 17
31 21
10 1
9 10
5 10
4 8
19 3
35 14
38 19
0 21
32 2
5 21
23 13
11 19
33 4
13 3
12 6
7 8
32 17
34 2
23 9
38 1
36 13
17 3
27 3
4 12
38 2
22 14
28 6
21 14
7 18
5 3
34 19
18 4
24 9
37 17
