*** Life<ConwayCell> 22x8 ***

Generation = 0, Population = 3.
........
........
........
.......*
........
........
........
........
........
........
........
........
..*.....
........
....*...
........
........
........
........
........
........
........

Generation = 49, Population = 0.
........
........
........
........
........
........
........
........
........
........
........
........
........
........
........
........
........
........
........
........
........
........

*** Life<ConwayCell> 40x27 ***

Generation = 0, Population = 7.
...........................
...........................
...........................
...........................
...........................
...........................
...........................
...........................
...........................
...........................
...........................
...........................
...............*...........
...........................
...........*...............
...........................
...........................
...........................
...........................
...........................
...........................
...........................
...........................
...........................
...........................
...........................
...................*.......
............*..............
...........................
.......................*...
...........................
...........................
...........................
...........................
.......*...................
...........................
...........................
...........................
.......*...................
...........................

Generation = 3, Population = 0.
...........................
...........................
...........................
...........................
...........................
...........................
...........................
...........................
...........................
...........................
...........................
...........................
...........................
...........................
...........................
...........................
...........................
...........................
...........................
...........................
...........................
...........................
...........................
...........................
...........................
...........................
...........................
...........................
...........................
...........................
...........................
...........................
...........................
...........................
...........................
...........................
...........................
...........................
...........................
...........................

Generation = 6, Population = 0.
...........................
...........................
...........................
...........................
...........................
...........................
...........................
...........................
...........................
...........................
...........................
...........................
...........................
...........................
...........................
...........................
...........................
...........................
...........................
...........................
...........................
...........................
...........................
...........................
...........................
...........................
...........................
...........................
...........................
...........................
...........................
...........................
...........................
...........................
...........................
...........................
...........................
...........................
...........................
...........................

Generation = 9, Population = 0.
...........................
...........................
...........................
...........................
...........................
...........................
...........................
...........................
...........................
...........................
...........................
...........................
...........................
...........................
...........................
...........................
...........................
...........................
...........................
...........................
...........................
...........................
...........................
...........................
...........................
...........................
...........................
...........................
...........................
...........................
...........................
...........................
...........................
...........................
...........................
...........................
...........................
...........................
...........................
...........................

Generation = 12, Population = 0.
...........................
...........................
...........................
...........................
...........................
...........................
...........................
...........................
...........................
...........................
...........................
...........................
...........................
...........................
...........................
...........................
...........................
...........................
...........................
...........................
...........................
...........................
...........................
...........................
...........................
...........................
...........................
...........................
...........................
...........................
...........................
...........................
...........................
...........................
...........................
...........................
...........................
...........................
...........................
...........................

Generation = 15, Population = 0.
...........................
...........................
...........................
...........................
...........................
...........................
...........................
...........................
...........................
...........................
...........................
...........................
...........................
...........................
...........................
...........................
...........................
...........................
...........................
...........................
...........................
...........................
...........................
...........................
...........................
...........................
...........................
...........................
...........................
...........................
...........................
...........................
...........................
...........................
...........................
...........................
...........................
...........................
...........................
...........................

Generation = 18, Population = 0.
...........................
...........................
...........................
...........................
...........................
...........................
...........................
...........................
...........................
...........................
...........................
...........................
...........................
...........................
...........................
...........................
...........................
...........................
...........................
...........................
...........................
...........................
...........................
...........................
...........................
...........................
...........................
...........................
...........................
...........................
...........................
...........................
...........................
...........................
...........................
...........................
...........................
...........................
...........................
...........................

Generation = 21, Population = 0.
...........................
...........................
...........................
...........................
...........................
...........................
...........................
...........................
...........................
...........................
...........................
...........................
...........................
...........................
...........................
...........................
...........................
...........................
...........................
...........................
...........................
...........................
...........................
...........................
...........................
...........................
...........................
...........................
...........................
...........................
...........................
...........................
...........................
...........................
...........................
...........................
...........................
...........................
...........................
...........................

Generation = 24, Population = 0.
...........................
...........................
...........................
...........................
...........................
...........................
...........................
...........................
...........................
...........................
...........................
...........................
...........................
...........................
...........................
...........................
...........................
...........................
...........................
...........................
...........................
...........................
...........................
...........................
...........................
...........................
...........................
...........................
...........................
...........................
...........................
...........................
...........................
...........................
...........................
...........................
...........................
...........................
...........................
...........................

Generation = 27, Population = 0.
...........................
...........................
...........................
...........................
...........................
...........................
...........................
...........................
...........................
...........................
...........................
...........................
...........................
...........................
...........................
...........................
...........................
...........................
...........................
...........................
...........................
...........................
...........................
...........................
...........................
...........................
...........................
...........................
...........................
...........................
...........................
...........................
...........................
...........................
...........................
...........................
...........................
...........................
...........................
...........................

Generation = 30, Population = 0.
...........................
...........................
...........................
...........................
...........................
...........................
...........................
...........................
...........................
...........................
...........................
...........................
...........................
...........................
...........................
...........................
...........................
...........................
...........................
...........................
...........................
...........................
...........................
...........................
...........................
...........................
...........................
...........................
...........................
...........................
...........................
...........................
...........................
...........................
...........................
...........................
...........................
...........................
...........................
...........................

Generation = 33, Population = 0.
...........................
...........................
...........................
...........................
...........................
...........................
...........................
...........................
...........................
...........................
...........................
...........................
...........................
...........................
...........................
...........................
...........................
...........................
...........................
...........................
...........................
...........................
...........................
...........................
...........................
...........................
...........................
...........................
...........................
...........................
...........................
...........................
...........................
...........................
...........................
...........................
...........................
...........................
...........................
...........................

Generation = 36, Population = 0.
...........................
...........................
...........................
...........................
...........................
...........................
...........................
...........................
...........................
...........................
...........................
...........................
...........................
...........................
...........................
...........................
...........................
...........................
...........................
...........................
...........................
...........................
...........................
...........................
...........................
...........................
...........................
...........................
...........................
...........................
...........................
...........................
...........................
...........................
...........................
...........................
...........................
...........................
...........................
...........................

Generation = 39, Population = 0.
...........................
...........................
...........................
...........................
...........................
...........................
...........................
...........................
...........................
...........................
...........................
...........................
...........................
...........................
...........................
...........................
...........................
...........................
...........................
...........................
...........................
...........................
...........................
...........................
...........................
...........................
...........................
...........................
...........................
...........................
...........................
...........................
...........................
...........................
...........................
...........................
...........................
...........................
...........................
...........................

Generation = 42, Population = 0.
...........................
...........................
...........................
...........................
...........................
...........................
...........................
...........................
...........................
...........................
...........................
...........................
...........................
...........................
...........................
...........................
...........................
...........................
...........................
...........................
...........................
...........................
...........................
...........................
...........................
...........................
...........................
...........................
...........................
...........................
...........................
...........................
...........................
...........................
...........................
...........................
...........................
...........................
...........................
...........................

Generation = 45, Population = 0.
...........................
...........................
...........................
...........................
...........................
...........................
...........................
...........................
...........................
...........................
...........................
...........................
...........................
...........................
...........................
...........................
...........................
...........................
...........................
...........................
...........................
...........................
...........................
...........................
...........................
...........................
...........................
...........................
...........................
...........................
...........................
...........................
...........................
...........................
...........................
...........................
...........................
...........................
...........................
...........................

Generation = 48, Population = 0.
...........................
...........................
...........................
...........................
...........................
...........................
...........................
...........................
...........................
...........................
...........................
...........................
...........................
...........................
...........................
...........................
...........................
...........................
...........................
...........................
...........................
...........................
...........................
...........................
...........................
...........................
...........................
...........................
...........................
...........................
...........................
...........................
...........................
...........................
...........................
...........................
...........................
...........................
...........................
...........................

Generation = 51, Population = 0.
...........................
...........................
...........................
...........................
...........................
...........................
...........................
...........................
...........................
...........................
...........................
...........................
...........................
...........................
...........................
...........................
...........................
...........................
...........................
...........................
...........................
...........................
...........................
...........................
...........................
...........................
...........................
...........................
...........................
...........................
...........................
...........................
...........................
...........................
...........................
...........................
...........................
...........................
...........................
...........................

Generation = 54, Population = 0.
...........................
...........................
...........................
...........................
...........................
...........................
...........................
...........................
...........................
...........................
...........................
...........................
...........................
...........................
...........................
...........................
...........................
...........................
...........................
...........................
...........................
...........................
...........................
...........................
...........................
...........................
...........................
...........................
...........................
...........................
...........................
...........................
...........................
...........................
...........................
...........................
...........................
...........................
...........................
...........................

Generation = 57, Population = 0.
...........................
...........................
...........................
...........................
...........................
...........................
...........................
...........................
...........................
...........................
...........................
...........................
...........................
...........................
...........................
...........................
...........................
...........................
...........................
...........................
...........................
...........................
...........................
...........................
...........................
...........................
...........................
...........................
...........................
...........................
...........................
...........................
...........................
...........................
...........................
...........................
...........................
...........................
...........................
...........................

Generation = 60, Population = 0.
...........................
...........................
...........................
...........................
...........................
...........................
...........................
...........................
...........................
...........................
...........................
...........................
...........................
...........................
...........................
...........................
...........................
...........................
...........................
...........................
...........................
...........................
...........................
...........................
...........................
...........................
...........................
...........................
...........................
...........................
...........................
...........................
...........................
...........................
...........................
...........................
...........................
...........................
...........................
...........................

Generation = 63, Population = 0.
...........................
...........................
...........................
...........................
...........................
...........................
...........................
...........................
...........................
...........................
...........................
...........................
...........................
...........................
...........................
...........................
...........................
...........................
...........................
...........................
...........................
...........................
...........................
...........................
...........................
...........................
...........................
...........................
...........................
...........................
...........................
...........................
...........................
...........................
...........................
...........................
...........................
...........................
...........................
...........................

Generation = 66, Population = 0.
...........................
...........................
...........................
...........................
...........................
...........................
...........................
...........................
...........................
...........................
...........................
...........................
...........................
...........................
...........................
...........................
...........................
...........................
...........................
...........................
...........................
...........................
...........................
...........................
...........................
...........................
...........................
...........................
...........................
...........................
...........................
...........................
...........................
...........................
...........................
...........................
...........................
...........................
...........................
...........................

Generation = 69, Population = 0.
...........................
...........................
...........................
...........................
...........................
...........................
...........................
...........................
...........................
...........................
...........................
...........................
...........................
...........................
...........................
...........................
...........................
...........................
...........................
...........................
...........................
...........................
...........................
...........................
...........................
...........................
...........................
...........................
...........................
...........................
...........................
...........................
...........................
...........................
...........................
...........................
...........................
...........................
...........................
...........................

Generation = 72, Population = 0.
...........................
...........................
...........................
...........................
...........................
...........................
...........................
...........................
...........................
...........................
...........................
...........................
...........................
...........................
...........................
...........................
...........................
...........................
...........................
...........................
...........................
...........................
...........................
...........................
...........................
...........................
...........................
...........................
...........................
...........................
...........................
...........................
...........................
...........................
...........................
...........................
...........................
...........................
...........................
...........................

Generation = 75, Population = 0.
...........................
...........................
...........................
...........................
...........................
...........................
...........................
...........................
...........................
...........................
...........................
...........................
...........................
...........................
...........................
...........................
...........................
...........................
...........................
...........................
...........................
...........................
...........................
...........................
...........................
...........................
...........................
...........................
...........................
...........................
...........................
...........................
...........................
...........................
...........................
...........................
...........................
...........................
...........................
...........................

Generation = 78, Population = 0.
...........................
...........................
...........................
...........................
...........................
...........................
...........................
...........................
...........................
...........................
...........................
...........................
...........................
...........................
...........................
...........................
...........................
...........................
...........................
...........................
...........................
...........................
...........................
...........................
...........................
...........................
...........................
...........................
...........................
...........................
...........................
...........................
...........................
...........................
...........................
...........................
...........................
...........................
...........................
...........................

Generation = 81, Population = 0.
...........................
...........................
...........................
...........................
...........................
...........................
...........................
...........................
...........................
...........................
...........................
...........................
...........................
...........................
...........................
...........................
...........................
...........................
...........................
...........................
...........................
...........................
...........................
...........................
...........................
...........................
...........................
...........................
...........................
...........................
...........................
...........................
...........................
...........................
...........................
...........................
...........................
...........................
...........................
...........................

*** Life<ConwayCell> 28x22 ***

Generation = 0, Population = 17.
.................*....
...............*......
......................
......*...............
.........*..........*.
..................*...
...*..................
......................
......................
......*...............
......*...............
......................
......................
...............*......
......................
.................*....
..........*...........
........*.............
...................*..
......................
......................
.....................*
....*.................
...*..................
......................
......................
......................
......................

Generation = 145, Population = 0.
......................
......................
......................
......................
......................
......................
......................
......................
......................
......................
......................
......................
......................
......................
......................
......................
......................
......................
......................
......................
......................
......................
......................
......................
......................
......................
......................
......................

*** Life<ConwayCell> 4x28 ***

Generation = 0, Population = 26.
......*.**...*.**..*....*...
..*.*....*.......***..*.*...
........*...**....*...**.*.*
..*..........*..............

*** Life<ConwayCell> 4x18 ***

Generation = 0, Population = 16.
*..........**...*.
...*..............
..*......**.****..
..*.*...*.......*.

Generation = 93, Population = 0.
..................
..................
..................
..................

Generation = 186, Population = 0.
..................
..................
..................
..................

Generation = 279, Population = 0.
..................
..................
..................
..................

Generation = 372, Population = 0.
..................
..................
..................
..................

*** Life<ConwayCell> 9x38 ***

Generation = 0, Population = 36.
.*.*....***..........................*
...............*......*..........*....
.....*.......*...............*..*..*..
........*.....*....*...*.......*......
.....**.*........*....................
........*.....*......................*
....**...........*.*...*..............
*...........*...*.....................
.........*.......*....................

Generation = 178, Population = 0.
......................................
......................................
......................................
......................................
......................................
......................................
......................................
......................................
......................................

Generation = 356, Population = 0.
......................................
......................................
......................................
......................................
......................................
......................................
......................................
......................................
......................................

*** Life<ConwayCell> 18x2 ***

Generation = 0, Population = 17.
**
.*
.*
**
..
.*
*.
..
.*
..
..
..
**
..
**
**
.*
*.

Generation = 131, Population = 0.
..
..
..
..
..
..
..
..
..
..
..
..
..
..
..
..
..
..

*** Life<ConwayCell> 25x36 ***

Generation = 0, Population = 12.
..............**..*.................
........*...........................
....................................
..*.................................
..............................*.....
....................................
....................................
....................................
....................................
..............*.................*...
....................................
....................................
...................................*
....................................
....................................
....................................
*...................................
....................................
....................................
....................................
....................................
........*...........................
....................................
...*................................
....................................

Generation = 130, Population = 0.
....................................
....................................
....................................
....................................
....................................
....................................
....................................
....................................
....................................
....................................
....................................
....................................
....................................
....................................
....................................
....................................
....................................
....................................
....................................
....................................
....................................
....................................
....................................
....................................
....................................

Generation = 260, Population = 0.
....................................
....................................
....................................
....................................
....................................
....................................
....................................
....................................
....................................
....................................
....................................
....................................
....................................
....................................
....................................
....................................
....................................
....................................
....................................
....................................
....................................
....................................
....................................
....................................
....................................

Generation = 390, Population = 0.
....................................
....................................
....................................
....................................
....................................
....................................
....................................
....................................
....................................
....................................
....................................
....................................
....................................
....................................
....................................
....................................
....................................
....................................
....................................
....................................
....................................
....................................
....................................
....................................
....................................

*** Life<ConwayCell> 7x26 ***

Generation = 0, Population = 35.
.......*.**......**..*....
*......*........**........
.**...*....*.*.....*...*..
*.............*.*.......**
.......*........*...*.....
...*.......**...*.....*..*
..*.......*.....*......*..

Generation = 33, Population = 24.
.**.......................
*.*.*...........**........
**..***.........**......*.
.......................*.*
.**....................*.*
..*.....................*.
..*.......................

Generation = 66, Population = 24.
.**.......................
*.*.*...........**........
**..***.........**......*.
.......................*.*
.**....................*.*
..*.....................*.
..*.......................

*** Life<ConwayCell> 33x14 ***

Generation = 0, Population = 30.
..............
............*.
.......*......
....*.....*...
.......*......
....*.........
..........*...
.......*......
...*....*.....
........*...*.
..........*...
..............
.......*.....*
..............
...........*..
*.............
......*....*..
..............
..............
...........*..
..............
...*..........
..*.....*.....
..............
........*.....
.........*....
..............
.....**.......
..............
..............
..............
..*.........*.
...*..........

*** Life<ConwayCell> 16x20 ***

Generation = 0, Population = 13.
..................*.
................*...
.........*..........
....................
...*...*............
....................
.**...*...*.*.......
....................
....................
....................
.*..................
....................
............*.......
....................
*...................
....................

Generation = 173, Population = 0.
....................
....................
....................
....................
....................
....................
....................
....................
....................
....................
....................
....................
....................
....................
....................
....................

Generation = 346, Population = 0.
....................
....................
....................
....................
....................
....................
....................
....................
....................
....................
....................
....................
....................
....................
....................
....................

*** Life<ConwayCell> 24x19 ***

Generation = 0, Population = 20.
...................
...........*.......
...................
...*............*..
.......*...........
...................
...................
...................
...*...............
...*..............*
...................
..................*
...................
...................
..........*........
...*.....*.........
...................
...................
...................
...................
.*............*...*
*.........*........
.......*..***......
...................

Generation = 114, Population = 6.
...................
...................
...................
...................
...................
...................
...................
...................
...................
...................
...................
...................
...................
...................
...................
...................
...................
...................
...................
...................
...................
..........**.......
.........*..*......
..........**.......

Generation = 228, Population = 6.
...................
...................
...................
...................
...................
...................
...................
...................
...................
...................
...................
...................
...................
...................
...................
...................
...................
...................
...................
...................
...................
..........**.......
.........*..*......
..........**.......

Generation = 342, Population = 6.
...................
...................
...................
...................
...................
...................
...................
...................
...................
...................
...................
...................
...................
...................
...................
...................
...................
...................
...................
...................
...................
..........**.......
.........*..*......
..........**.......

*** Life<ConwayCell> 32x34 ***

Generation = 0, Population = 19.
..................................
..........................*.......
..................................
..................................
..................................
..................................
..................................
..........................*.......
.................*................
.....................*............
..................................
..................................
.............*.............*......
..................*...*...........
..................................
...................*..............
..........*.......................
....................*.............
..................................
.......................*..........
...*........................*.....
..................................
..................................
.................................*
..................................
..................................
......................*...........
.........................*........
.*................................
..................................
..................................
.......................*..........

*** Life<ConwayCell> 40x11 ***

Generation = 0, Population = 8.
...........
...........
...........
...........
.........*.
.*.........
...........
...........
.*.........
...........
...........
...........
...........
...........
...........
...........
...........
.*.........
...........
...........
...........
...........
...........
*..........
........*..
...........
...........
...........
...........
...........
...........
...........
...........
...........
...........
...........
...........
..*.....*..
...........
...........

*** Life<ConwayCell> 18x21 ***

Generation = 0, Population = 25.
.......**............
.....................
.....................
..................*.*
.*....*......*..*....
....................*
.....................
..........*.....*....
................*...*
.....*...............
.....................
.....................
..........*.......*..
......*..............
.....**...*.......*..
......*..............
.*....*.*............
.....................

Generation = 82, Population = 0.
.....................
.....................
.....................
.....................
.....................
.....................
.....................
.....................
.....................
.....................
.....................
.....................
.....................
.....................
.....................
.....................
.....................
.....................

Generation = 164, Population = 0.
.....................
.....................
.....................
.....................
.....................
.....................
.....................
.....................
.....................
.....................
.....................
.....................
.....................
.....................
.....................
.....................
.....................
.....................

Generation = 246, Population = 0.
.....................
.....................
.....................
.....................
.....................
.....................
.....................
.....................
.....................
.....................
.....................
.....................
.....................
.....................
.....................
.....................
.....................
.....................

*** Life<ConwayCell> 30x33 ***

Generation = 0, Population = 3.
................................*
.................................
.................................
.................................
.................................
.................................
.................................
.................................
.................................
.................................
.................................
.................................
.................................
.................*...............
.................................
.................................
.................................
.................................
.................................
.................................
..........................*......
.................................
.................................
.................................
.................................
.................................
.................................
.................................
.................................
.................................

Generation = 10, Population = 0.
.................................
.................................
.................................
.................................
.................................
.................................
.................................
.................................
.................................
.................................
.................................
.................................
.................................
.................................
.................................
.................................
.................................
.................................
.................................
.................................
.................................
.................................
.................................
.................................
.................................
.................................
.................................
.................................
.................................
.................................

Generation = 20, Population = 0.
.................................
.................................
.................................
.................................
.................................
.................................
.................................
.................................
.................................
.................................
.................................
.................................
.................................
.................................
.................................
.................................
.................................
.................................
.................................
.................................
.................................
.................................
.................................
.................................
.................................
.................................
.................................
.................................
.................................
.................................

Generation = 30, Population = 0.
.................................
.................................
.................................
.................................
.................................
.................................
.................................
.................................
.................................
.................................
.................................
.................................
.................................
.................................
.................................
.................................
.................................
.................................
.................................
.................................
.................................
.................................
.................................
.................................
.................................
.................................
.................................
.................................
.................................
.................................

Generation = 40, Population = 0.
.................................
.................................
.................................
.................................
.................................
.................................
.................................
.................................
.................................
.................................
.................................
.................................
.................................
.................................
.................................
.................................
.................................
.................................
.................................
.................................
.................................
.................................
.................................
.................................
.................................
.................................
.................................
.................................
.................................
.................................

Generation = 50, Population = 0.
.................................
.................................
.................................
.................................
.................................
.................................
.................................
.................................
.................................
.................................
.................................
.................................
.................................
.................................
.................................
.................................
.................................
.................................
.................................
.................................
.................................
.................................
.................................
.................................
.................................
.................................
.................................
.................................
.................................
.................................

Generation = 60, Population = 0.
.................................
.................................
.................................
.................................
.................................
.................................
.................................
.................................
.................................
.................................
.................................
.................................
.................................
.................................
.................................
.................................
.................................
.................................
.................................
.................................
.................................
.................................
.................................
.................................
.................................
.................................
.................................
.................................
.................................
.................................

Generation = 70, Population = 0.
.................................
.................................
.................................
.................................
.................................
.................................
.................................
.................................
.................................
.................................
.................................
.................................
.................................
.................................
.................................
.................................
.................................
.................................
.................................
.................................
.................................
.................................
.................................
.................................
.................................
.................................
.................................
.................................
.................................
.................................

Generation = 80, Population = 0.
.................................
.................................
.................................
.................................
.................................
.................................
.................................
.................................
.................................
.................................
.................................
.................................
.................................
.................................
.................................
.................................
.................................
.................................
.................................
.................................
.................................
.................................
.................................
.................................
.................................
.................................
.................................
.................................
.................................
.................................

Generation = 90, Population = 0.
.................................
.................................
.................................
.................................
.................................
.................................
.................................
.................................
.................................
.................................
.................................
.................................
.................................
.................................
.................................
.................................
.................................
.................................
.................................
.................................
.................................
.................................
.................................
.................................
.................................
.................................
.................................
.................................
.................................
.................................

Generation = 100, Population = 0.
.................................
.................................
.................................
.................................
.................................
.................................
.................................
.................................
.................................
.................................
.................................
.................................
.................................
.................................
.................................
.................................
.................................
.................................
.................................
.................................
.................................
.................................
.................................
.................................
.................................
.................................
.................................
.................................
.................................
.................................

Generation = 110, Population = 0.
.................................
.................................
.................................
.................................
.................................
.................................
.................................
.................................
.................................
.................................
.................................
.................................
.................................
.................................
.................................
.................................
.................................
.................................
.................................
.................................
.................................
.................................
.................................
.................................
.................................
.................................
.................................
.................................
.................................
.................................

Generation = 120, Population = 0.
.................................
.................................
.................................
.................................
.................................
.................................
.................................
.................................
.................................
.................................
.................................
.................................
.................................
.................................
.................................
.................................
.................................
.................................
.................................
.................................
.................................
.................................
.................................
.................................
.................................
.................................
.................................
.................................
.................................
.................................

Generation = 130, Population = 0.
.................................
.................................
.................................
.................................
.................................
.................................
.................................
.................................
.................................
.................................
.................................
.................................
.................................
.................................
.................................
.................................
.................................
.................................
.................................
.................................
.................................
.................................
.................................
.................................
.................................
.................................
.................................
.................................
.................................
.................................

Generation = 140, Population = 0.
.................................
.................................
.................................
.................................
.................................
.................................
.................................
.................................
.................................
.................................
.................................
.................................
.................................
.................................
.................................
.................................
.................................
.................................
.................................
.................................
.................................
.................................
.................................
.................................
.................................
.................................
.................................
.................................
.................................
.................................

Generation = 150, Population = 0.
.................................
.................................
.................................
.................................
.................................
.................................
.................................
.................................
.................................
.................................
.................................
.................................
.................................
.................................
.................................
.................................
.................................
.................................
.................................
.................................
.................................
.................................
.................................
.................................
.................................
.................................
.................................
.................................
.................................
.................................

Generation = 160, Population = 0.
.................................
.................................
.................................
.................................
.................................
.................................
.................................
.................................
.................................
.................................
.................................
.................................
.................................
.................................
.................................
.................................
.................................
.................................
.................................
.................................
.................................
.................................
.................................
.................................
.................................
.................................
.................................
.................................
.................................
.................................

Generation = 170, Population = 0.
.................................
.................................
.................................
.................................
.................................
.................................
.................................
.................................
.................................
.................................
.................................
.................................
.................................
.................................
.................................
.................................
.................................
.................................
.................................
.................................
.................................
.................................
.................................
.................................
.................................
.................................
.................................
.................................
.................................
.................................

Generation = 180, Population = 0.
.................................
.................................
.................................
.................................
.................................
.................................
.................................
.................................
.................................
.................................
.................................
.................................
.................................
.................................
.................................
.................................
.................................
.................................
.................................
.................................
.................................
.................................
.................................
.................................
.................................
.................................
.................................
.................................
.................................
.................................

Generation = 190, Population = 0.
.................................
.................................
.................................
.................................
.................................
.................................
.................................
.................................
.................................
.................................
.................................
.................................
.................................
.................................
.................................
.................................
.................................
.................................
.................................
.................................
.................................
.................................
.................................
.................................
.................................
.................................
.................................
.................................
.................................
.................................

Generation = 200, Population = 0.
.................................
.................................
.................................
.................................
.................................
.................................
.................................
.................................
.................................
.................................
.................................
.................................
.................................
.................................
.................................
.................................
.................................
.................................
.................................
.................................
.................................
.................................
.................................
.................................
.................................
.................................
.................................
.................................
.................................
.................................

Generation = 210, Population = 0.
.................................
.................................
.................................
.................................
.................................
.................................
.................................
.................................
.................................
.................................
.................................
.................................
.................................
.................................
.................................
.................................
.................................
.................................
.................................
.................................
.................................
.................................
.................................
.................................
.................................
.................................
.................................
.................................
.................................
.................................

Generation = 220, Population = 0.
.................................
.................................
.................................
.................................
.................................
.................................
.................................
.................................
.................................
.................................
.................................
.................................
.................................
.................................
.................................
.................................
.................................
.................................
.................................
.................................
.................................
.................................
.................................
.................................
.................................
.................................
.................................
.................................
.................................
.................................

Generation = 230, Population = 0.
.................................
.................................
.................................
.................................
.................................
.................................
.................................
.................................
.................................
.................................
.................................
.................................
.................................
.................................
.................................
.................................
.................................
.................................
.................................
.................................
.................................
.................................
.................................
.................................
.................................
.................................
.................................
.................................
.................................
.................................

Generation = 240, Population = 0.
.................................
.................................
.................................
.................................
.................................
.................................
.................................
.................................
.................................
.................................
.................................
.................................
.................................
.................................
.................................
.................................
.................................
.................................
.................................
.................................
.................................
.................................
.................................
.................................
.................................
.................................
.................................
.................................
.................................
.................................

Generation = 250, Population = 0.
.................................
.................................
.................................
.................................
.................................
.................................
.................................
.................................
.................................
.................................
.................................
.................................
.................................
.................................
.................................
.................................
.................................
.................................
.................................
.................................
.................................
.................................
.................................
.................................
.................................
.................................
.................................
.................................
.................................
.................................

Generation = 260, Population = 0.
.................................
.................................
.................................
.................................
.................................
.................................
.................................
.................................
.................................
.................................
.................................
.................................
.................................
.................................
.................................
.................................
.................................
.................................
.................................
.................................
.................................
.................................
.................................
.................................
.................................
.................................
.................................
.................................
.................................
.................................

Generation = 270, Population = 0.
.................................
.................................
.................................
.................................
.................................
.................................
.................................
.................................
.................................
.................................
.................................
.................................
.................................
.................................
.................................
.................................
.................................
.................................
.................................
.................................
.................................
.................................
.................................
.................................
.................................
.................................
.................................
.................................
.................................
.................................

Generation = 280, Population = 0.
.................................
.................................
.................................
.................................
.................................
.................................
.................................
.................................
.................................
.................................
.................................
.................................
.................................
.................................
.................................
.................................
.................................
.................................
.................................
.................................
.................................
.................................
.................................
.................................
.................................
.................................
.................................
.................................
.................................
.................................

Generation = 290, Population = 0.
.................................
.................................
.................................
.................................
.................................
.................................
.................................
.................................
.................................
.................................
.................................
.................................
.................................
.................................
.................................
.................................
.................................
.................................
.................................
.................................
.................................
.................................
.................................
.................................
.................................
.................................
.................................
.................................
.................................
.................................

Generation = 300, Population = 0.
.................................
.................................
.................................
.................................
.................................
.................................
.................................
.................................
.................................
.................................
.................................
.................................
.................................
.................................
.................................
.................................
.................................
.................................
.................................
.................................
.................................
.................................
.................................
.................................
.................................
.................................
.................................
.................................
.................................
.................................

Generation = 310, Population = 0.
.................................
.................................
.................................
.................................
.................................
.................................
.................................
.................................
.................................
.................................
.................................
.................................
.................................
.................................
.................................
.................................
.................................
.................................
.................................
.................................
.................................
.................................
.................................
.................................
.................................
.................................
.................................
.................................
.................................
.................................

*** Life<ConwayCell> 3x31 ***

Generation = 0, Population = 30.
*...**.**.........******.....*.
.**...**.*..*..***....**.......
.....*.......**......*.....***.

Generation = 101, Population = 4.
.....................**........
.....................**........
...............................

*** Life<ConwayCell> 2x9 ***

Generation = 0, Population = 6.
..**....*
.*....*.*

Generation = 2, Population = 0.
.........
.........

Generation = 4, Population = 0.
.........
.........

Generation = 6, Population = 0.
.........
.........

Generation = 8, Population = 0.
.........
.........

Generation = 10, Population = 0.
.........
.........

Generation = 12, Population = 0.
.........
.........

Generation = 14, Population = 0.
.........
.........

Generation = 16, Population = 0.
.........
.........

Generation = 18, Population = 0.
.........
.........

Generation = 20, Population = 0.
.........
.........

Generation = 22, Population = 0.
.........
.........

Generation = 24, Population = 0.
.........
.........

Generation = 26, Population = 0.
.........
.........

Generation = 28, Population = 0.
.........
.........

Generation = 30, Population = 0.
.........
.........

Generation = 32, Population = 0.
.........
.........

Generation = 34, Population = 0.
.........
.........

Generation = 36, Population = 0.
.........
.........

Generation = 38, Population = 0.
.........
.........

Generation = 40, Population = 0.
.........
.........

Generation = 42, Population = 0.
.........
.........

Generation = 44, Population = 0.
.........
.........

Generation = 46, Population = 0.
.........
.........

Generation = 48, Population = 0.
.........
.........

Generation = 50, Population = 0.
.........
.........

Generation = 52, Population = 0.
.........
.........

Generation = 54, Population = 0.
.........
.........

Generation = 56, Population = 0.
.........
.........

Generation = 58, Population = 0.
.........
.........

Generation = 60, Population = 0.
.........
.........

Generation = 62, Population = 0.
.........
.........

Generation = 64, Population = 0.
.........
.........

Generation = 66, Population = 0.
.........
.........

Generation = 68, Population = 0.
.........
.........

Generation = 70, Population = 0.
.........
.........

Generation = 72, Population = 0.
.........
.........

Generation = 74, Population = 0.
.........
.........

Generation = 76, Population = 0.
.........
.........

Generation = 78, Population = 0.
.........
.........

Generation = 80, Population = 0.
.........
.........

Generation = 82, Population = 0.
.........
.........

Generation = 84, Population = 0.
.........
.........

Generation = 86, Population = 0.
.........
.........

Generation = 88, Population = 0.
.........
.........

Generation = 90, Population = 0.
.........
.........

Generation = 92, Population = 0.
.........
.........

Generation = 94, Population = 0.
.........
.........

Generation = 96, Population = 0.
.........
.........

Generation = 98, Population = 0.
.........
.........

Generation = 100, Population = 0.
.........
.........

Generation = 102, Population = 0.
.........
.........

Generation = 104, Population = 0.
.........
.........

Generation = 106, Population = 0.
.........
.........

Generation = 108, Population = 0.
.........
.........

Generation = 110, Population = 0.
.........
.........

Generation = 112, Population = 0.
.........
.........

Generation = 114, Population = 0.
.........
.........

Generation = 116, Population = 0.
.........
.........

Generation = 118, Population = 0.
.........
.........

Generation = 120, Population = 0.
.........
.........

Generation = 122, Population = 0.
.........
.........

Generation = 124, Population = 0.
.........
.........

Generation = 126, Population = 0.
.........
.........

Generation = 128, Population = 0.
.........
.........

Generation = 130, Population = 0.
.........
.........

Generation = 132, Population = 0.
.........
.........

Generation = 134, Population = 0.
.........
.........

Generation = 136, Population = 0.
.........
.........

Generation = 138, Population = 0.
.........
.........

Generation = 140, Population = 0.
.........
.........

Generation = 142, Population = 0.
.........
.........

Generation = 144, Population = 0.
.........
.........

Generation = 146, Population = 0.
.........
.........

Generation = 148, Population = 0.
.........
.........

Generation = 150, Population = 0.
.........
.........

Generation = 152, Population = 0.
.........
.........

Generation = 154, Population = 0.
.........
.........

Generation = 156, Population = 0.
.........
.........

Generation = 158, Population = 0.
.........
.........

Generation = 160, Population = 0.
.........
.........

Generation = 162, Population = 0.
.........
.........

Generation = 164, Population = 0.
.........
.........

Generation = 166, Population = 0.
.........
.........

Generation = 168, Population = 0.
.........
.........

Generation = 170, Population = 0.
.........
.........

Generation = 172, Population = 0.
.........
.........

Generation = 174, Population = 0.
.........
.........

Generation = 176, Population = 0.
.........
.........

Generation = 178, Population = 0.
.........
.........

Generation = 180, Population = 0.
.........
.........

Generation = 182, Population = 0.
.........
.........

Generation = 184, Population = 0.
.........
.........

Generation = 186, Population = 0.
.........
.........

Generation = 188, Population = 0.
.........
.........

Generation = 190, Population = 0.
.........
.........

Generation = 192, Population = 0.
.........
.........

Generation = 194, Population = 0.
.........
.........

Generation = 196, Population = 0.
.........
.........

Generation = 198, Population = 0.
.........
.........

Generation = 200, Population = 0.
.........
.........

Generation = 202, Population = 0.
.........
.........

Generation = 204, Population = 0.
.........
.........

Generation = 206, Population = 0.
.........
.........

Generation = 208, Population = 0.
.........
.........

Generation = 210, Population = 0.
.........
.........

Generation = 212, Population = 0.
.........
.........

Generation = 214, Population = 0.
.........
.........

Generation = 216, Population = 0.
.........
.........

Generation = 218, Population = 0.
.........
.........

Generation = 220, Population = 0.
.........
.........

Generation = 222, Population = 0.
.........
.........

Generation = 224, Population = 0.
.........
.........

Generation = 226, Population = 0.
.........
.........

Generation = 228, Population = 0.
.........
.........

Generation = 230, Population = 0.
.........
.........

Generation = 232, Population = 0.
.........
.........

Generation = 234, Population = 0.
.........
.........

Generation = 236, Population = 0.
.........
.........

Generation = 238, Population = 0.
.........
.........

Generation = 240, Population = 0.
.........
.........

Generation = 242, Population = 0.
.........
.........

Generation = 244, Population = 0.
.........
.........

Generation = 246, Population = 0.
.........
.........

Generation = 248, Population = 0.
.........
.........

Generation = 250, Population = 0.
.........
.........

Generation = 252, Population = 0.
.........
.........

Generation = 254, Population = 0.
.........
.........

Generation = 256, Population = 0.
.........
.........

Generation = 258, Population = 0.
.........
.........

Generation = 260, Population = 0.
.........
.........

Generation = 262, Population = 0.
.........
.........

Generation = 264, Population = 0.
.........
.........

Generation = 266, Population = 0.
.........
.........

Generation = 268, Population = 0.
.........
.........

Generation = 270, Population = 0.
.........
.........

Generation = 272, Population = 0.
.........
.........

Generation = 274, Population = 0.
.........
.........

Generation = 276, Population = 0.
.........
.........

Generation = 278, Population = 0.
.........
.........

Generation = 280, Population = 0.
.........
.........

Generation = 282, Population = 0.
.........
.........

Generation = 284, Population = 0.
.........
.........

Generation = 286, Population = 0.
.........
.........

Generation = 288, Population = 0.
.........
.........

Generation = 290, Population = 0.
.........
.........

Generation = 292, Population = 0.
.........
.........

Generation = 294, Population = 0.
.........
.........

Generation = 296, Population = 0.
.........
.........

Generation = 298, Population = 0.
.........
.........

Generation = 300, Population = 0.
.........
.........

Generation = 302, Population = 0.
.........
.........

Generation = 304, Population = 0.
.........
.........

Generation = 306, Population = 0.
.........
.........

Generation = 308, Population = 0.
.........
.........

Generation = 310, Population = 0.
.........
.........

Generation = 312, Population = 0.
.........
.........

Generation = 314, Population = 0.
.........
.........

Generation = 316, Population = 0.
.........
.........

Generation = 318, Population = 0.
.........
.........

Generation = 320, Population = 0.
.........
.........

Generation = 322, Population = 0.
.........
.........

Generation = 324, Population = 0.
.........
.........

Generation = 326, Population = 0.
.........
.........

Generation = 328, Population = 0.
.........
.........

Generation = 330, Population = 0.
.........
.........

Generation = 332, Population = 0.
.........
.........

Generation = 334, Population = 0.
.........
.........

Generation = 336, Population = 0.
.........
.........

Generation = 338, Population = 0.
.........
.........

Generation = 340, Population = 0.
.........
.........

Generation = 342, Population = 0.
.........
.........

Generation = 344, Population = 0.
.........
.........

Generation = 346, Population = 0.
.........
.........

Generation = 348, Population = 0.
.........
.........

Generation = 350, Population = 0.
.........
.........

Generation = 352, Population = 0.
.........
.........

Generation = 354, Population = 0.
.........
.........

Generation = 356, Population = 0.
.........
.........

Generation = 358, Population = 0.
.........
.........

Generation = 360, Population = 0.
.........
.........

Generation = 362, Population = 0.
.........
.........

Generation = 364, Population = 0.
.........
.........

Generation = 366, Population = 0.
.........
.........

Generation = 368, Population = 0.
.........
.........

Generation = 370, Population = 0.
.........
.........

Generation = 372, Population = 0.
.........
.........

Generation = 374, Population = 0.
.........
.........

Generation = 376, Population = 0.
.........
.........

Generation = 378, Population = 0.
.........
.........

Generation = 380, Population = 0.
.........
.........

Generation = 382, Population = 0.
.........
.........

Generation = 384, Population = 0.
.........
.........

Generation = 386, Population = 0.
.........
.........

Generation = 388, Population = 0.
.........
.........

Generation = 390, Population = 0.
.........
.........

Generation = 392, Population = 0.
.........
.........

Generation = 394, Population = 0.
.........
.........

Generation = 396, Population = 0.
.........
.........

Generation = 398, Population = 0.
.........
.........

Generation = 400, Population = 0.
.........
.........

Generation = 402, Population = 0.
.........
.........

Generation = 404, Population = 0.
.........
.........

Generation = 406, Population = 0.
.........
.........

Generation = 408, Population = 0.
.........
.........

Generation = 410, Population = 0.
.........
.........

Generation = 412, Population = 0.
.........
.........

Generation = 414, Population = 0.
.........
.........

Generation = 416, Population = 0.
.........
.........

Generation = 418, Population = 0.
.........
.........

Generation = 420, Population = 0.
.........
.........

Generation = 422, Population = 0.
.........
.........

Generation = 424, Population = 0.
.........
.........

Generation = 426, Population = 0.
.........
.........

Generation = 428, Population = 0.
.........
.........

Generation = 430, Population = 0.
.........
.........

Generation = 432, Population = 0.
.........
.........

Generation = 434, Population = 0.
.........
.........

Generation = 436, Population = 0.
.........
.........

Generation = 438, Population = 0.
.........
.........

Generation = 440, Population = 0.
.........
.........

Generation = 442, Population = 0.
.........
.........

Generation = 444, Population = 0.
.........
.........

Generation = 446, Population = 0.
.........
.........

Generation = 448, Population = 0.
.........
.........

Generation = 450, Population = 0.
.........
.........

Generation = 452, Population = 0.
.........
.........

Generation = 454, Population = 0.
.........
.........

Generation = 456, Population = 0.
.........
.........

Generation = 458, Population = 0.
.........
.........

Generation = 460, Population = 0.
.........
.........

Generation = 462, Population = 0.
.........
.........

Generation = 464, Population = 0.
.........
.........

Generation = 466, Population = 0.
.........
.........

Generation = 468, Population = 0.
.........
.........

Generation = 470, Population = 0.
.........
.........

Generation = 472, Population = 0.
.........
.........

Generation = 474, Population = 0.
.........
.........

Generation = 476, Population = 0.
.........
.........

Generation = 478, Population = 0.
.........
.........

*** Life<ConwayCell> 10x29 ***

Generation = 0, Population = 33.
...*....................*....
..............*.*.........*..
........*......*.........*...
.............*.............*.
.........*........**.........
...*.....*...........***....*
*.....................*......
....................*........
.......................***...
..*..*..**....***......*.....

*** Life<ConwayCell> 32x33 ***

Generation = 0, Population = 32.
.................................
................*................
.......*..*...........*..........
.................................
.................................
.................................
.........*.......................
.................................
............*....................
................................*
.......*.........................
.................................
...........................*..*..
.......................*...*.....
................*.......*........
*.........*........*.....*.......
.....*......................*....
.................................
.............*.*.*...............
.................................
........*........................
.................................
.................................
....................*............
.................................
...*..........................*..
........*........................
.................................
.................*........*......
...................*.............
.................................
.........*.......................
